boot.vcd
$date
	2021-09-04 12:58
$end
$timescale 1042ps $end
$scope 1042ps $end
$var wire 1 ! main_n64cartbus_aleh $end
$var wire 1 " main_n64cartbus_alel $end
$var wire 1 # main_n64cartbus_read $end
$var wire 1 $ main_n64cartbus_write $end
$var wire 1 % main_n64cartbus_ad_oe $end
$var wire 16 & main_n64cartbus_ad_out $end
$var wire 16 ' main_n64cartbus_ad_in $end
$var wire 32 ( main_n64cartbus_n64_addr $end
$var wire 1 ) main_n64cartbus_read_active $end
$var wire 4 * main_n64cartbus_state $end
$var wire 23 + main_cmd_payload_addr $end
$var wire 1 , main_flush $end
$var wire 1 - main_cmd_valid $end
$var wire 1 . main_cmd_ready $end
$var wire 1 / main_rdata_ready $end
$var wire 1 0 main_rdata_valid $end
$var wire 32 1 main_rdata_payload_data $end
$var wire 1 2 scope_clk $end
$var wire 1 3 scope_trig $end
$unscope  $end
$enddefinitions  $end
$dumpvars
bx !
bx "
bx #
bx $
bx %
bxxxxxxxxxxxxxxxx &
bxxxxxxxxxxxxxxxx '
bxxxxxxxxxxxxxxxxxxxxxxxxxxxxxxxx (
bx )
bxxxx *
bxxxxxxxxxxxxxxxxxxxxxxx +
bx ,
bx -
bx .
bx /
bx 0
bxxxxxxxxxxxxxxxxxxxxxxxxxxxxxxxx 1
bx 2
bx 3
$end
#0
b1 !
b0 "
b1 #
b1 $
b0 %
b0000000000000000 &
b0000000000000000 '
b00000000000000000000000000000000 (
b0 )
b0001 *
b00000000000000000000000 +
b0 ,
b0 -
b1 .
b1 /
b0 0
b00000000000000000000000000000000 1
b1 2
b0 3
#1
b1 !
b0 "
b1 #
b1 $
b0 %
b0000000000000000 &
b0000000000000000 '
b00000000000000000000000000000000 (
b0 )
b0001 *
b00000000000000000000000 +
b0 ,
b0 -
b1 .
b1 /
b0 0
b00000000000000000000000000000000 1
b0 2
b0 3
#2
b1 !
b0 "
b1 #
b1 $
b0 %
b0000000000000000 &
b0000000000000000 '
b00000000000000000000000000000000 (
b0 )
b0001 *
b00000000000000000000000 +
b0 ,
b0 -
b1 .
b1 /
b0 0
b00000000000000000000000000000000 1
b1 2
b0 3
#3
b1 !
b0 "
b1 #
b1 $
b0 %
b0000000000000000 &
b0000000000000000 '
b00000000000000000000000000000000 (
b0 )
b0001 *
b00000000000000000000000 +
b0 ,
b0 -
b1 .
b1 /
b0 0
b00000000000000000000000000000000 1
b0 2
b0 3
#4
b1 !
b0 "
b1 #
b1 $
b0 %
b0000000000000000 &
b0000000000000000 '
b00000000000000000000000000000000 (
b0 )
b0001 *
b00000000000000000000000 +
b0 ,
b0 -
b1 .
b1 /
b0 0
b00000000000000000000000000000000 1
b1 2
b0 3
#5
b1 !
b0 "
b1 #
b1 $
b0 %
b0000000000000000 &
b0000000000000000 '
b00000000000000000000000000000000 (
b0 )
b0001 *
b00000000000000000000000 +
b0 ,
b0 -
b1 .
b1 /
b0 0
b00000000000000000000000000000000 1
b0 2
b0 3
#6
b1 !
b0 "
b1 #
b1 $
b0 %
b0000000000000000 &
b0000000000000000 '
b00000000000000000000000000000000 (
b0 )
b0001 *
b00000000000000000000000 +
b0 ,
b0 -
b1 .
b1 /
b0 0
b00000000000000000000000000000000 1
b1 2
b0 3
#7
b1 !
b0 "
b1 #
b1 $
b0 %
b0000000000000000 &
b0000000000000000 '
b00000000000000000000000000000000 (
b0 )
b0001 *
b00000000000000000000000 +
b0 ,
b0 -
b1 .
b1 /
b0 0
b00000000000000000000000000000000 1
b0 2
b0 3
#8
b1 !
b0 "
b1 #
b1 $
b0 %
b0000000000000000 &
b0000000000000000 '
b00000000000000000000000000000000 (
b0 )
b0001 *
b00000000000000000000000 +
b0 ,
b0 -
b1 .
b1 /
b0 0
b00000000000000000000000000000000 1
b1 2
b0 3
#9
b1 !
b0 "
b1 #
b1 $
b0 %
b0000000000000000 &
b0000000000000000 '
b00000000000000000000000000000000 (
b0 )
b0001 *
b00000000000000000000000 +
b0 ,
b0 -
b1 .
b1 /
b0 0
b00000000000000000000000000000000 1
b0 2
b0 3
#10
b1 !
b0 "
b1 #
b1 $
b0 %
b0000000000000000 &
b0000000000000000 '
b00000000000000000000000000000000 (
b0 )
b0001 *
b00000000000000000000000 +
b0 ,
b0 -
b1 .
b1 /
b0 0
b00000000000000000000000000000000 1
b1 2
b0 3
#11
b1 !
b0 "
b1 #
b1 $
b0 %
b0000000000000000 &
b0000000000000000 '
b00000000000000000000000000000000 (
b0 )
b0001 *
b00000000000000000000000 +
b0 ,
b0 -
b1 .
b1 /
b0 0
b00000000000000000000000000000000 1
b0 2
b0 3
#12
b1 !
b0 "
b1 #
b1 $
b0 %
b0000000000000000 &
b0000000000000000 '
b00000000000000000000000000000000 (
b0 )
b0001 *
b00000000000000000000000 +
b0 ,
b0 -
b1 .
b1 /
b0 0
b00000000000000000000000000000000 1
b1 2
b0 3
#13
b1 !
b0 "
b1 #
b1 $
b0 %
b0000000000000000 &
b0000000000000000 '
b00000000000000000000000000000000 (
b0 )
b0001 *
b00000000000000000000000 +
b0 ,
b0 -
b1 .
b1 /
b0 0
b00000000000000000000000000000000 1
b0 2
b0 3
#14
b1 !
b0 "
b1 #
b1 $
b0 %
b0000000000000000 &
b0000000000000000 '
b00000000000000000000000000000000 (
b0 )
b0001 *
b00000000000000000000000 +
b0 ,
b0 -
b1 .
b1 /
b0 0
b00000000000000000000000000000000 1
b1 2
b0 3
#15
b1 !
b0 "
b1 #
b1 $
b0 %
b0000000000000000 &
b0000000000000000 '
b00000000000000000000000000000000 (
b0 )
b0001 *
b00000000000000000000000 +
b0 ,
b0 -
b1 .
b1 /
b0 0
b00000000000000000000000000000000 1
b0 2
b0 3
#16
b1 !
b0 "
b1 #
b1 $
b0 %
b0000000000000000 &
b0000000000000000 '
b00000000000000000000000000000000 (
b0 )
b0001 *
b00000000000000000000000 +
b0 ,
b0 -
b1 .
b1 /
b0 0
b00000000000000000000000000000000 1
b1 2
b0 3
#17
b1 !
b0 "
b1 #
b1 $
b0 %
b0000000000000000 &
b0000000000000000 '
b00000000000000000000000000000000 (
b0 )
b0001 *
b00000000000000000000000 +
b0 ,
b0 -
b1 .
b1 /
b0 0
b00000000000000000000000000000000 1
b0 2
b0 3
#18
b1 !
b0 "
b1 #
b1 $
b0 %
b0000000000000000 &
b0000000000000000 '
b00000000000000000000000000000000 (
b0 )
b0001 *
b00000000000000000000000 +
b0 ,
b0 -
b1 .
b1 /
b0 0
b00000000000000000000000000000000 1
b1 2
b0 3
#19
b1 !
b0 "
b1 #
b1 $
b0 %
b0000000000000000 &
b0000000000000000 '
b00000000000000000000000000000000 (
b0 )
b0001 *
b00000000000000000000000 +
b0 ,
b0 -
b1 .
b1 /
b0 0
b00000000000000000000000000000000 1
b0 2
b0 3
#20
b1 !
b0 "
b1 #
b1 $
b0 %
b0000000000000000 &
b0000000000000000 '
b00000000000000000000000000000000 (
b0 )
b0001 *
b00000000000000000000000 +
b0 ,
b0 -
b1 .
b1 /
b0 0
b00000000000000000000000000000000 1
b1 2
b0 3
#21
b1 !
b0 "
b1 #
b1 $
b0 %
b0000000000000000 &
b0000000000000000 '
b00000000000000000000000000000000 (
b0 )
b0001 *
b00000000000000000000000 +
b0 ,
b0 -
b1 .
b1 /
b0 0
b00000000000000000000000000000000 1
b0 2
b0 3
#22
b1 !
b0 "
b1 #
b1 $
b0 %
b0000000000000000 &
b0000000000000000 '
b00000000000000000000000000000000 (
b0 )
b0001 *
b00000000000000000000000 +
b0 ,
b0 -
b1 .
b1 /
b0 0
b00000000000000000000000000000000 1
b1 2
b0 3
#23
b1 !
b0 "
b1 #
b1 $
b0 %
b0000000000000000 &
b0000000000000000 '
b00000000000000000000000000000000 (
b0 )
b0001 *
b00000000000000000000000 +
b0 ,
b0 -
b1 .
b1 /
b0 0
b00000000000000000000000000000000 1
b0 2
b0 3
#24
b1 !
b0 "
b1 #
b1 $
b0 %
b0000000000000000 &
b0000000000000000 '
b00000000000000000000000000000000 (
b0 )
b0001 *
b00000000000000000000000 +
b0 ,
b0 -
b1 .
b1 /
b0 0
b00000000000000000000000000000000 1
b1 2
b0 3
#25
b1 !
b0 "
b1 #
b1 $
b0 %
b0000000000000000 &
b0000000000000000 '
b00000000000000000000000000000000 (
b0 )
b0001 *
b00000000000000000000000 +
b0 ,
b0 -
b1 .
b1 /
b0 0
b00000000000000000000000000000000 1
b0 2
b0 3
#26
b1 !
b0 "
b1 #
b1 $
b0 %
b0000000000000000 &
b0000000000000000 '
b00000000000000000000000000000000 (
b0 )
b0001 *
b00000000000000000000000 +
b0 ,
b0 -
b1 .
b1 /
b0 0
b00000000000000000000000000000000 1
b1 2
b0 3
#27
b1 !
b0 "
b1 #
b1 $
b0 %
b0000000000000000 &
b0000000000000000 '
b00000000000000000000000000000000 (
b0 )
b0001 *
b00000000000000000000000 +
b0 ,
b0 -
b1 .
b1 /
b0 0
b00000000000000000000000000000000 1
b0 2
b0 3
#28
b1 !
b0 "
b1 #
b1 $
b0 %
b0000000000000000 &
b0000000000000000 '
b00000000000000000000000000000000 (
b0 )
b0001 *
b00000000000000000000000 +
b0 ,
b0 -
b1 .
b1 /
b0 0
b00000000000000000000000000000000 1
b1 2
b0 3
#29
b1 !
b0 "
b1 #
b1 $
b0 %
b0000000000000000 &
b0000000000000000 '
b00000000000000000000000000000000 (
b0 )
b0001 *
b00000000000000000000000 +
b0 ,
b0 -
b1 .
b1 /
b0 0
b00000000000000000000000000000000 1
b0 2
b0 3
#30
b1 !
b0 "
b1 #
b1 $
b0 %
b0000000000000000 &
b0000000000000000 '
b00000000000000000000000000000000 (
b0 )
b0001 *
b00000000000000000000000 +
b0 ,
b0 -
b1 .
b1 /
b0 0
b00000000000000000000000000000000 1
b1 2
b0 3
#31
b1 !
b0 "
b1 #
b1 $
b0 %
b0000000000000000 &
b0000000000000000 '
b00000000000000000000000000000000 (
b0 )
b0001 *
b00000000000000000000000 +
b0 ,
b0 -
b1 .
b1 /
b0 0
b00000000000000000000000000000000 1
b0 2
b0 3
#32
b1 !
b0 "
b1 #
b1 $
b0 %
b0000000000000000 &
b0000000000000000 '
b00000000000000000000000000000000 (
b0 )
b0001 *
b00000000000000000000000 +
b0 ,
b0 -
b1 .
b1 /
b0 0
b00000000000000000000000000000000 1
b1 2
b1 3
#33
b1 !
b0 "
b1 #
b1 $
b0 %
b0000000000000000 &
b0000000000000000 '
b00000000000000000000000000000000 (
b0 )
b0001 *
b00000000000000000000000 +
b0 ,
b0 -
b1 .
b1 /
b0 0
b00000000000000000000000000000000 1
b0 2
b1 3
#34
b1 !
b0 "
b1 #
b1 $
b0 %
b0000000000000000 &
b0000000000000000 '
b00000000000000000000000000000000 (
b0 )
b0001 *
b00000000000000000000000 +
b0 ,
b0 -
b1 .
b1 /
b0 0
b00000000000000000000000000000000 1
b1 2
b1 3
#35
b1 !
b0 "
b1 #
b1 $
b0 %
b0000000000000000 &
b0000000000000000 '
b00000000000000000000000000000000 (
b0 )
b0001 *
b00000000000000000000000 +
b0 ,
b0 -
b1 .
b1 /
b0 0
b00000000000000000000000000000000 1
b0 2
b1 3
#36
b1 !
b0 "
b1 #
b1 $
b0 %
b0000000000000000 &
b0000000000000000 '
b00000000000000000000000000000000 (
b0 )
b0001 *
b00000000000000000000000 +
b0 ,
b0 -
b1 .
b1 /
b0 0
b00000000000000000000000000000000 1
b1 2
b1 3
#37
b1 !
b0 "
b1 #
b1 $
b0 %
b0000000000000000 &
b0000000000000000 '
b00000000000000000000000000000000 (
b0 )
b0001 *
b00000000000000000000000 +
b0 ,
b0 -
b1 .
b1 /
b0 0
b00000000000000000000000000000000 1
b0 2
b1 3
#38
b1 !
b0 "
b1 #
b1 $
b0 %
b0000000000000000 &
b0000000000000000 '
b00000000000000000000000000000000 (
b0 )
b0001 *
b00000000000000000000000 +
b0 ,
b0 -
b1 .
b1 /
b0 0
b00000000000000000000000000000000 1
b1 2
b1 3
#39
b1 !
b0 "
b1 #
b1 $
b0 %
b0000000000000000 &
b0000000000000000 '
b00000000000000000000000000000000 (
b0 )
b0001 *
b00000000000000000000000 +
b0 ,
b0 -
b1 .
b1 /
b0 0
b00000000000000000000000000000000 1
b0 2
b1 3
#40
b1 !
b0 "
b1 #
b1 $
b0 %
b0000000000000000 &
b0000000000000000 '
b00000000000000000000000000000000 (
b0 )
b0001 *
b00000000000000000000000 +
b0 ,
b0 -
b1 .
b1 /
b0 0
b00000000000000000000000000000000 1
b1 2
b1 3
#41
b1 !
b0 "
b1 #
b1 $
b0 %
b0000000000000000 &
b0000000000000000 '
b00000000000000000000000000000000 (
b0 )
b0001 *
b00000000000000000000000 +
b0 ,
b0 -
b1 .
b1 /
b0 0
b00000000000000000000000000000000 1
b0 2
b1 3
#42
b1 !
b0 "
b1 #
b1 $
b0 %
b0000000000000000 &
b0000000000000000 '
b00000000000000000000000000000000 (
b0 )
b0001 *
b00000000000000000000000 +
b0 ,
b0 -
b1 .
b1 /
b0 0
b00000000000000000000000000000000 1
b1 2
b1 3
#43
b1 !
b0 "
b1 #
b1 $
b0 %
b0000000000000000 &
b0000000000000000 '
b00000000000000000000000000000000 (
b0 )
b0001 *
b00000000000000000000000 +
b0 ,
b0 -
b1 .
b1 /
b0 0
b00000000000000000000000000000000 1
b0 2
b1 3
#44
b1 !
b0 "
b1 #
b1 $
b0 %
b0000000000000000 &
b0000000000000000 '
b00000000000000000000000000000000 (
b0 )
b0001 *
b00000000000000000000000 +
b0 ,
b0 -
b1 .
b1 /
b0 0
b00000000000000000000000000000000 1
b1 2
b1 3
#45
b1 !
b0 "
b1 #
b1 $
b0 %
b0000000000000000 &
b0000000000000000 '
b00000000000000000000000000000000 (
b0 )
b0001 *
b00000000000000000000000 +
b0 ,
b0 -
b1 .
b1 /
b0 0
b00000000000000000000000000000000 1
b0 2
b1 3
#46
b1 !
b0 "
b1 #
b1 $
b0 %
b0000000000000000 &
b0000000000000000 '
b00000000000000000000000000000000 (
b0 )
b0001 *
b00000000000000000000000 +
b0 ,
b0 -
b1 .
b1 /
b0 0
b00000000000000000000000000000000 1
b1 2
b1 3
#47
b1 !
b0 "
b1 #
b1 $
b0 %
b0000000000000000 &
b0000000000000000 '
b00000000000000000000000000000000 (
b0 )
b0001 *
b00000000000000000000000 +
b0 ,
b0 -
b1 .
b1 /
b0 0
b00000000000000000000000000000000 1
b0 2
b1 3
#48
b1 !
b0 "
b1 #
b1 $
b0 %
b0000000000000000 &
b0000000000000000 '
b00000000000000000000000000000000 (
b0 )
b0001 *
b00000000000000000000000 +
b0 ,
b0 -
b1 .
b1 /
b0 0
b00000000000000000000000000000000 1
b1 2
b1 3
#49
b1 !
b0 "
b1 #
b1 $
b0 %
b0000000000000000 &
b0000000000000000 '
b00000000000000000000000000000000 (
b0 )
b0001 *
b00000000000000000000000 +
b0 ,
b0 -
b1 .
b1 /
b0 0
b00000000000000000000000000000000 1
b0 2
b1 3
#50
b1 !
b0 "
b1 #
b1 $
b0 %
b0000000000000000 &
b0000000000000000 '
b00000000000000000000000000000000 (
b0 )
b0001 *
b00000000000000000000000 +
b0 ,
b0 -
b1 .
b1 /
b0 0
b00000000000000000000000000000000 1
b1 2
b1 3
#51
b1 !
b0 "
b1 #
b1 $
b0 %
b0000000000000000 &
b0000000000000000 '
b00000000000000000000000000000000 (
b0 )
b0001 *
b00000000000000000000000 +
b0 ,
b0 -
b1 .
b1 /
b0 0
b00000000000000000000000000000000 1
b0 2
b1 3
#52
b1 !
b0 "
b1 #
b1 $
b0 %
b0000000000000000 &
b0000000000000000 '
b00000000000000000000000000000000 (
b0 )
b0001 *
b00000000000000000000000 +
b0 ,
b0 -
b1 .
b1 /
b0 0
b00000000000000000000000000000000 1
b1 2
b1 3
#53
b1 !
b0 "
b1 #
b1 $
b0 %
b0000000000000000 &
b0000000000000000 '
b00000000000000000000000000000000 (
b0 )
b0001 *
b00000000000000000000000 +
b0 ,
b0 -
b1 .
b1 /
b0 0
b00000000000000000000000000000000 1
b0 2
b1 3
#54
b1 !
b0 "
b1 #
b1 $
b0 %
b0000000000000000 &
b0000000000000000 '
b00000000000000000000000000000000 (
b0 )
b0001 *
b00000000000000000000000 +
b0 ,
b0 -
b1 .
b1 /
b0 0
b00000000000000000000000000000000 1
b1 2
b1 3
#55
b1 !
b0 "
b1 #
b1 $
b0 %
b0000000000000000 &
b0000000000000000 '
b00000000000000000000000000000000 (
b0 )
b0001 *
b00000000000000000000000 +
b0 ,
b0 -
b1 .
b1 /
b0 0
b00000000000000000000000000000000 1
b0 2
b1 3
#56
b1 !
b0 "
b1 #
b1 $
b0 %
b0000000000000000 &
b0000000000000000 '
b00000000000000000000000000000000 (
b0 )
b0001 *
b00000000000000000000000 +
b0 ,
b0 -
b1 .
b1 /
b0 0
b00000000000000000000000000000000 1
b1 2
b1 3
#57
b1 !
b0 "
b1 #
b1 $
b0 %
b0000000000000000 &
b0000000000000000 '
b00000000000000000000000000000000 (
b0 )
b0001 *
b00000000000000000000000 +
b0 ,
b0 -
b1 .
b1 /
b0 0
b00000000000000000000000000000000 1
b0 2
b1 3
#58
b1 !
b1 "
b1 #
b1 $
b0 %
b0000000000000000 &
b0000000000000000 '
b00000000000000000000000000000000 (
b0 )
b0001 *
b00000000000000000000000 +
b0 ,
b0 -
b1 .
b1 /
b0 0
b00000000000000000000000000000000 1
b1 2
b1 3
#59
b1 !
b1 "
b1 #
b1 $
b0 %
b0000000000000000 &
b0000000000000000 '
b00000000000000000000000000000000 (
b0 )
b0001 *
b00000000000000000000000 +
b0 ,
b0 -
b1 .
b1 /
b0 0
b00000000000000000000000000000000 1
b0 2
b1 3
#60
b1 !
b1 "
b1 #
b1 $
b0 %
b0000000000000000 &
b0001000000000000 '
b00000000000000000000000000000000 (
b0 )
b0010 *
b00000000000000000000000 +
b0 ,
b0 -
b1 .
b1 /
b0 0
b00000000000000000000000000000000 1
b1 2
b1 3
#61
b1 !
b1 "
b1 #
b1 $
b0 %
b0000000000000000 &
b0001000000000000 '
b00000000000000000000000000000000 (
b0 )
b0010 *
b00000000000000000000000 +
b0 ,
b0 -
b1 .
b1 /
b0 0
b00000000000000000000000000000000 1
b0 2
b1 3
#62
b1 !
b1 "
b1 #
b1 $
b0 %
b0000000000000000 &
b0001000000000000 '
b00000000000000000000000000000000 (
b0 )
b0010 *
b00000000000000000000000 +
b0 ,
b0 -
b1 .
b1 /
b0 0
b00000000000000000000000000000000 1
b1 2
b1 3
#63
b1 !
b1 "
b1 #
b1 $
b0 %
b0000000000000000 &
b0001000000000000 '
b00000000000000000000000000000000 (
b0 )
b0010 *
b00000000000000000000000 +
b0 ,
b0 -
b1 .
b1 /
b0 0
b00000000000000000000000000000000 1
b0 2
b1 3
#64
b1 !
b1 "
b1 #
b1 $
b0 %
b0000000000000000 &
b0001000000000000 '
b00000000000000000000000000000000 (
b0 )
b0010 *
b00000000000000000000000 +
b0 ,
b0 -
b1 .
b1 /
b0 0
b00000000000000000000000000000000 1
b1 2
b1 3
#65
b1 !
b1 "
b1 #
b1 $
b0 %
b0000000000000000 &
b0001000000000000 '
b00000000000000000000000000000000 (
b0 )
b0010 *
b00000000000000000000000 +
b0 ,
b0 -
b1 .
b1 /
b0 0
b00000000000000000000000000000000 1
b0 2
b1 3
#66
b1 !
b1 "
b1 #
b1 $
b0 %
b0000000000000000 &
b0001000000000000 '
b00000000000000000000000000000000 (
b0 )
b0010 *
b00000000000000000000000 +
b0 ,
b0 -
b1 .
b1 /
b0 0
b00000000000000000000000000000000 1
b1 2
b1 3
#67
b1 !
b1 "
b1 #
b1 $
b0 %
b0000000000000000 &
b0001000000000000 '
b00000000000000000000000000000000 (
b0 )
b0010 *
b00000000000000000000000 +
b0 ,
b0 -
b1 .
b1 /
b0 0
b00000000000000000000000000000000 1
b0 2
b1 3
#68
b1 !
b1 "
b1 #
b1 $
b0 %
b0000000000000000 &
b0001000000000000 '
b00000000000000000000000000000000 (
b0 )
b0010 *
b00000000000000000000000 +
b0 ,
b0 -
b1 .
b1 /
b0 0
b00000000000000000000000000000000 1
b1 2
b1 3
#69
b1 !
b1 "
b1 #
b1 $
b0 %
b0000000000000000 &
b0001000000000000 '
b00000000000000000000000000000000 (
b0 )
b0010 *
b00000000000000000000000 +
b0 ,
b0 -
b1 .
b1 /
b0 0
b00000000000000000000000000000000 1
b0 2
b1 3
#70
b0 !
b1 "
b1 #
b1 $
b0 %
b0000000000000000 &
b0000000000000000 '
b00000000000000000000000000000000 (
b0 )
b0010 *
b00000000000000000000000 +
b0 ,
b0 -
b1 .
b1 /
b0 0
b00000000000000000000000000000000 1
b1 2
b1 3
#71
b0 !
b1 "
b1 #
b1 $
b0 %
b0000000000000000 &
b0000000000000000 '
b00000000000000000000000000000000 (
b0 )
b0010 *
b00000000000000000000000 +
b0 ,
b0 -
b1 .
b1 /
b0 0
b00000000000000000000000000000000 1
b0 2
b1 3
#72
b0 !
b1 "
b1 #
b1 $
b0 %
b0000000000000000 &
b0000000000000000 '
b00000000000000000000000000000000 (
b0 )
b0011 *
b00000000000000000000000 +
b0 ,
b0 -
b1 .
b1 /
b0 0
b00000000000000000000000000000000 1
b1 2
b1 3
#73
b0 !
b1 "
b1 #
b1 $
b0 %
b0000000000000000 &
b0000000000000000 '
b00000000000000000000000000000000 (
b0 )
b0011 *
b00000000000000000000000 +
b0 ,
b0 -
b1 .
b1 /
b0 0
b00000000000000000000000000000000 1
b0 2
b1 3
#74
b0 !
b1 "
b1 #
b1 $
b0 %
b0000000000000000 &
b0000000000000000 '
b00000000000000000000000000000000 (
b0 )
b0011 *
b00000000000000000000000 +
b0 ,
b0 -
b1 .
b1 /
b0 0
b00000000000000000000000000000000 1
b1 2
b1 3
#75
b0 !
b1 "
b1 #
b1 $
b0 %
b0000000000000000 &
b0000000000000000 '
b00000000000000000000000000000000 (
b0 )
b0011 *
b00000000000000000000000 +
b0 ,
b0 -
b1 .
b1 /
b0 0
b00000000000000000000000000000000 1
b0 2
b1 3
#76
b0 !
b1 "
b1 #
b1 $
b0 %
b0000000000000000 &
b0000000000000000 '
b00000000000000000000000000000000 (
b0 )
b0011 *
b00000000000000000000000 +
b0 ,
b0 -
b1 .
b1 /
b0 0
b00000000000000000000000000000000 1
b1 2
b1 3
#77
b0 !
b1 "
b1 #
b1 $
b0 %
b0000000000000000 &
b0000000000000000 '
b00000000000000000000000000000000 (
b0 )
b0011 *
b00000000000000000000000 +
b0 ,
b0 -
b1 .
b1 /
b0 0
b00000000000000000000000000000000 1
b0 2
b1 3
#78
b0 !
b1 "
b1 #
b1 $
b0 %
b0000000000000000 &
b0000000000000000 '
b00000000000000000000000000000000 (
b0 )
b0011 *
b00000000000000000000000 +
b0 ,
b0 -
b1 .
b1 /
b0 0
b00000000000000000000000000000000 1
b1 2
b1 3
#79
b0 !
b1 "
b1 #
b1 $
b0 %
b0000000000000000 &
b0000000000000000 '
b00000000000000000000000000000000 (
b0 )
b0011 *
b00000000000000000000000 +
b0 ,
b0 -
b1 .
b1 /
b0 0
b00000000000000000000000000000000 1
b0 2
b1 3
#80
b0 !
b0 "
b1 #
b1 $
b0 %
b0000000000000000 &
b0000000000000000 '
b00000000000000000000000000000000 (
b0 )
b0011 *
b00000000000000000000000 +
b0 ,
b0 -
b1 .
b1 /
b0 0
b00000000000000000000000000000000 1
b1 2
b1 3
#81
b0 !
b0 "
b1 #
b1 $
b0 %
b0000000000000000 &
b0000000000000000 '
b00000000000000000000000000000000 (
b0 )
b0011 *
b00000000000000000000000 +
b0 ,
b0 -
b1 .
b1 /
b0 0
b00000000000000000000000000000000 1
b0 2
b1 3
#82
b0 !
b0 "
b1 #
b1 $
b0 %
b0000000000000000 &
b0000000000000000 '
b00010000000000000000000000000000 (
b0 )
b0100 *
b00000000000000000000000 +
b0 ,
b0 -
b1 .
b1 /
b0 0
b00000000000000000000000000000000 1
b1 2
b1 3
#83
b0 !
b0 "
b1 #
b1 $
b0 %
b0000000000000000 &
b0000000000000000 '
b00010000000000000000000000000000 (
b0 )
b0100 *
b00000000000000000000000 +
b0 ,
b0 -
b1 .
b1 /
b0 0
b00000000000000000000000000000000 1
b0 2
b1 3
#84
b0 !
b0 "
b1 #
b1 $
b0 %
b0000000000000000 &
b0000000000000000 '
b00010000000000000000000000000000 (
b0 )
b0100 *
b00000000000000000000000 +
b0 ,
b0 -
b1 .
b1 /
b0 0
b00000000000000000000000000000000 1
b1 2
b1 3
#85
b0 !
b0 "
b1 #
b1 $
b0 %
b0000000000000000 &
b0000000000000000 '
b00010000000000000000000000000000 (
b0 )
b0100 *
b00000000000000000000000 +
b0 ,
b0 -
b1 .
b1 /
b0 0
b00000000000000000000000000000000 1
b0 2
b1 3
#86
b0 !
b0 "
b1 #
b1 $
b0 %
b0000000000000000 &
b0000000000000000 '
b00010000000000000000000000000000 (
b0 )
b0100 *
b00000000000000000000000 +
b0 ,
b0 -
b1 .
b1 /
b0 0
b00000000000000000000000000000000 1
b1 2
b1 3
#87
b0 !
b0 "
b1 #
b1 $
b0 %
b0000000000000000 &
b0000000000000000 '
b00010000000000000000000000000000 (
b0 )
b0100 *
b00000000000000000000000 +
b0 ,
b0 -
b1 .
b1 /
b0 0
b00000000000000000000000000000000 1
b0 2
b1 3
#88
b0 !
b0 "
b1 #
b1 $
b0 %
b0000000000000000 &
b0000000000000000 '
b00010000000000000000000000000000 (
b0 )
b0100 *
b00000000000000000000000 +
b0 ,
b0 -
b1 .
b1 /
b0 0
b00000000000000000000000000000000 1
b1 2
b1 3
#89
b0 !
b0 "
b1 #
b1 $
b0 %
b0000000000000000 &
b0000000000000000 '
b00010000000000000000000000000000 (
b0 )
b0100 *
b00000000000000000000000 +
b0 ,
b0 -
b1 .
b1 /
b0 0
b00000000000000000000000000000000 1
b0 2
b1 3
#90
b0 !
b0 "
b1 #
b1 $
b0 %
b0000000000000000 &
b0000000000000000 '
b00010000000000000000000000000000 (
b0 )
b0100 *
b00000000000000000000000 +
b0 ,
b0 -
b1 .
b1 /
b0 0
b00000000000000000000000000000000 1
b1 2
b1 3
#91
b0 !
b0 "
b1 #
b1 $
b0 %
b0000000000000000 &
b0000000000000000 '
b00010000000000000000000000000000 (
b0 )
b0100 *
b00000000000000000000000 +
b0 ,
b0 -
b1 .
b1 /
b0 0
b00000000000000000000000000000000 1
b0 2
b1 3
#92
b0 !
b0 "
b1 #
b1 $
b0 %
b0000000000000000 &
b0000000000000000 '
b00010000000000000000000000000000 (
b0 )
b0100 *
b00000000000000000000000 +
b0 ,
b0 -
b1 .
b1 /
b0 0
b00000000000000000000000000000000 1
b1 2
b1 3
#93
b0 !
b0 "
b1 #
b1 $
b0 %
b0000000000000000 &
b0000000000000000 '
b00010000000000000000000000000000 (
b0 )
b0100 *
b00000000000000000000000 +
b0 ,
b0 -
b1 .
b1 /
b0 0
b00000000000000000000000000000000 1
b0 2
b1 3
#94
b0 !
b0 "
b1 #
b1 $
b0 %
b0000000000000000 &
b0000000000000000 '
b00010000000000000000000000000000 (
b0 )
b0100 *
b00000000000000000000000 +
b0 ,
b0 -
b1 .
b1 /
b0 0
b00000000000000000000000000000000 1
b1 2
b1 3
#95
b0 !
b0 "
b1 #
b1 $
b0 %
b0000000000000000 &
b0000000000000000 '
b00010000000000000000000000000000 (
b0 )
b0100 *
b00000000000000000000000 +
b0 ,
b0 -
b1 .
b1 /
b0 0
b00000000000000000000000000000000 1
b0 2
b1 3
#96
b0 !
b0 "
b1 #
b1 $
b0 %
b0000000000000000 &
b0000000000000000 '
b00010000000000000000000000000000 (
b0 )
b0100 *
b00000000000000000000000 +
b0 ,
b0 -
b1 .
b1 /
b0 0
b00000000000000000000000000000000 1
b1 2
b1 3
#97
b0 !
b0 "
b1 #
b1 $
b0 %
b0000000000000000 &
b0000000000000000 '
b00010000000000000000000000000000 (
b0 )
b0100 *
b00000000000000000000000 +
b0 ,
b0 -
b1 .
b1 /
b0 0
b00000000000000000000000000000000 1
b0 2
b1 3
#98
b0 !
b0 "
b1 #
b1 $
b0 %
b0000000000000000 &
b0000000000000000 '
b00010000000000000000000000000000 (
b0 )
b0100 *
b00000000000000000000000 +
b0 ,
b0 -
b1 .
b1 /
b0 0
b00000000000000000000000000000000 1
b1 2
b1 3
#99
b0 !
b0 "
b1 #
b1 $
b0 %
b0000000000000000 &
b0000000000000000 '
b00010000000000000000000000000000 (
b0 )
b0100 *
b00000000000000000000000 +
b0 ,
b0 -
b1 .
b1 /
b0 0
b00000000000000000000000000000000 1
b0 2
b1 3
#100
b0 !
b0 "
b1 #
b1 $
b0 %
b0000000000000000 &
b0000000000000000 '
b00010000000000000000000000000000 (
b0 )
b0100 *
b00000000000000000000000 +
b0 ,
b0 -
b1 .
b1 /
b0 0
b00000000000000000000000000000000 1
b1 2
b1 3
#101
b0 !
b0 "
b1 #
b1 $
b0 %
b0000000000000000 &
b0000000000000000 '
b00010000000000000000000000000000 (
b0 )
b0100 *
b00000000000000000000000 +
b0 ,
b0 -
b1 .
b1 /
b0 0
b00000000000000000000000000000000 1
b0 2
b1 3
#102
b0 !
b0 "
b1 #
b1 $
b0 %
b0000000000000000 &
b0000000000000000 '
b00010000000000000000000000000000 (
b0 )
b0100 *
b00000000000000000000000 +
b0 ,
b0 -
b1 .
b1 /
b0 0
b00000000000000000000000000000000 1
b1 2
b1 3
#103
b0 !
b0 "
b1 #
b1 $
b0 %
b0000000000000000 &
b0000000000000000 '
b00010000000000000000000000000000 (
b0 )
b0100 *
b00000000000000000000000 +
b0 ,
b0 -
b1 .
b1 /
b0 0
b00000000000000000000000000000000 1
b0 2
b1 3
